A Computer Practical 1 - Missing data | Clinical Trials 4H
…
Not many individual participants have more than about 25% of their data missing, but there are some variables that are missing for nearly all participants (more on this later).

A.2.2 Summary tables

We may also want to visualise or summarise missingness in a table, and there are various ways to do this, for example miss_case_summary, miss_var_summary and miss_var_summary.

Exercise A.4  Use the three table generating functions listed above on our datasets. Do they give you any new information compared to the plots?

Click for solution

Solution. Working through the list of functions (just for opt_df), we have:

miss_case_summary(opt_df)

## # A tibble: 823 × 3
##     case n_miss pct_miss
##    <int>  <int>    <dbl>
##  1   423      9     50  
##  2    80      8     44.4
##  3    93      8     44.4
##  4   477      8     44.4
##  5   539      8     44.4
##  6    11      7     38.9
##  7    21      7     38.9
##  8    43      7     38.9
##  9    54      7     38.9
## 10   150      7     38.9
## # ℹ 813 more rows
…
and finally by pdl1_num:

smdi_nab %>%
  group_by(pdl1_num) %>%
  summarise_at(.vars = "eventtime",
               .funs = c("mean", "sd", "var", "min", "max"),
               na.rm = TRUE)

## # A tibble: 1,540 × 6
##    pdl1_num  mean    sd   var   min   max
##       <dbl> <dbl> <dbl> <dbl> <dbl> <dbl>
##  1     6.14 0.655    NA    NA 0.655 0.655
##  2    12.4  0.463    NA    NA 0.463 0.463
##  3    12.9  0.679    NA    NA 0.679 0.679
##  4    13.6  0.358    NA    NA 0.358 0.358
##  5    15.8  0.290    NA    NA 0.290 0.290
##  6    16.7  1.71     NA    NA 1.71  1.71 
##  7    17.4  0.245    NA    NA 0.245 0.245
##  8    17.8  1.52     NA    NA 1.52  1.52 
##  9    18.7  4.91     NA    NA 4.91  4.91 
## 10    19.0  2.03     NA    NA 2.03  2.03 
## # ℹ 1,530 more rows
…
