A Computer Practical 1 - Allocation | Clinical Trials 4H
…
Solution. The code for this will vary, but the basic idea is to work through the individual data sets individually, and apply the functions from Section A.2.3. One way to do this is by creating a for loop. The code below shows how this would work for simple random sampling, but you can change the function to use whichever method you prefer.

# This command creates an empty list, which we will fill with allocation data frames as we go through
alloc_list = list()
# The loop works through the stratified data frames, applies SRS to allocate patients
# and stores them in alloc_list
for (i in 1:length(strat_gen_sm)){
  alloc_list[[i]] = srs(strat_gen_sm[[i]])
}
# bind all the data frames back together again
alloc_full= dplyr::bind_rows(alloc_list)
# re-order according to ID variable
alloc_full[order(alloc_full$ID),]

## # A tibble: 235 × 9
##    preOp_gender preOp_asa preOp_mallampati preOp_smoking preOp_pain age      BMI           treat    ID
##    <fct>        <fct>     <fct>            <fct>         <fct>      <fct>    <fct>         <fct> <int>
##  1 0            3         2                1             0          50 to 70 high          0         1
##  2 0            2         2                2             0          70 plus  medium_or_low 0         2
##  3 0            2         2                1             0          50 to 70 high          0         3
##  4 0            2         2                1             0          50 to 70 high          1         4
##  5 0            1         1                2             0          70 plus  high          0         5
##  6 0            2         3                1             0          50 to 70 high          1         6
##  7 0            3         1                1             0          50 to 70 high          0         7
##  8 0            2         2                1             0          50 to 70 high          1         8
##  9 0            3         1                1             0          70 plus  medium_or_low 0         9
## 10 0            3         2                3             0          50 to 70 high          1        10
## # ℹ 225 more rows
…
